{
    "ConversionTable": [
        [
            1,
            "bonus_wood_10",
            10
        ],
        [
            2,
            "bonus_wood_06",
            15
        ],
        [
            3,
            "bonus_wood_08",
            25
        ],
        [
            4,
            "bonus_wood_16",
            50
        ],
        [
            5,
            "obstacle_wood_03",
            10
        ],
        [
            6,
            "obstacle_wood_26",
            15
        ],
        [
            7,
            "obstacle_wood_33",
            25
        ],
        [
            8,
            "obstacle_wood_36",
            30
        ],
        [
            9,
            "obstacle_wood_41",
            35
        ],
        [
            10,
            "obstacle_wood_43",
            40
        ],
        [
            11,
            "obstacle_wood_47",
            40
        ],
        [
            12,
            "obstacle_wood_54",
            40
        ],
        [
            13,
            "platform_stone"
        ],
        [
            14,
            "platform_wood_13"
        ],
        [
            15,
            "platform_wood_24"
        ],
        [
            16,
            "platform_wood_29"
        ],
        [
            20,
            "end"
        ]
    ],
    "Level": [
        [0, 14, 0, 0, 0],
        [0, 0, 15, 0, 0],
        [0, 0, 15, 0, 0],
        [0, 0, 15, 0, 0],
        [0, 0, 15, 0, 0],
        [0, 0, 15, 0, 0],
        [0, 0, 15, 0, 0],
        [0, 0, 15, 1, 0],

        [0, 0, 0, 0, 15, 1],
        [0, 0, 0, 0, 15, 2],
        [0, 0, 0, 0, 15, 1],
        [0, 0, 0, 0, 15, 0],
        [0, 0, 0, 0, 15, 0],
        [0, 0, 0, 0, 15, 0],
        [0, 0, 0, 0, 15, 0],
        [0, 0, 0, 0, 15, 0],

        [0, 0, 14, 1, 0],
        [0, 0, 15, 0, 0],
        [0, 0, 15, 0, 0],
        [0, 0, 15, 0, 0],
        [0, 0, 15, 0, 0],
        [0, 0, 15, 0, 0],
        [0, 0, 15, 0, 0],
        [0, 0, 15, 0, 0],

        [0, 0, 0, 0, 0],
        [0, 0, 0, 0, 0],
        [0, 14, 15, 0, 0],
        [0, 0, 15, 0, 0],
        [12, 0, 0, 0, 0],
        [0, 0, 0, 0, 0],
        [0, 0, 0, 0, 0],
        [0, 0, 15, 1, 0],


        [1, 0, 0, 0, 0],
        [1, 0, 0, 0, 0],
        [2, 0, 0, 0, 0],
        [3, 0, 0, 0, 0],

        [7, 0, 0, 0, 0],
        [7, 0, 0, 0, 0],

        [0, 14, 0, 0, 0],
        [0, 0, 15, 0, 0],
        [0, 0, 15, 0, 0],
        [0, 0, 15, 0, 0],
        [0, 0, 15, 0, 0],
        [0, 0, 15, 0, 0],
        [0, 0, 15, 0, 0],
        [0, 0, 15, 1, 0],

        [0, 0, 0, 0, 15, 1],
        [0, 0, 0, 0, 15, 2],
        [0, 0, 0, 0, 15, 1],
        [0, 0, 0, 0, 15, 0],
        [1, 0, 0, 0, 15, 0],
        [2, 14, 0, 0, 15, 0],
        [0, 0, 14, 0, 15, 0],
        [0, 0, 0, 0, 15, 0],
        [12, 0, 0, 0],
        [7],

        [0, 14, 0, 0, 0],
        [0, 0, 15, 0, 0],
        [0, 0, 15, 0, 0],
        [0, 0, 15, 0, 0],
        [0, 0, 15, 0, 0],
        [0, 0, 15, 0, 0],
        [0, 0, 15, 0, 0],
        [0, 0, 15, 1, 0],

        [0, 0, 0, 0, 15, 1],
        [0, 0, 0, 0, 15, 2],
        [0, 0, 0, 0, 15, 1],
        [0, 0, 0, 0, 15, 0],
        [1, 0, 0, 0, 15, 0],
        [2, 14, 0, 0, 15, 0],
        [0, 0, 14, 0, 15, 0],
        [0, 0, 0, 0, 15, 0],

        [0, 14, 0, 0, 0],
        [0, 0, 15, 0, 0],
        [0, 0, 15, 15, 0],
        [0, 0, 0, 15, 14],
        [0, 0, 0, 0, 15, 15],
        [6, 0, 0, 0, 15, 1],
        [0, 0, 0, 0, 15, 2],
        [6, 0, 15, 0, 0],

        [12, 15, 0, 0, 15, 1],
        [0, 0, 0, 14, 15, 2],
        [0, 0, 0, 0, 15, 1],
        [0, 0, 0, 0, 15, 0],
        [6, 0, 0, 0, 15, 0],
        [6, 14, 0, 0, 15, 1],
        [0, 0, 14, 0, 15, 0],
        [1, 0, 0, 0, 15, 0],

        [13, 0, 0, 0, 0, 0],
        [12, 0, 0, 1, 0, 0],
        [0, 0, 0, 0, 1, 0],
        [0, 0, 0, 0, 0, 4],
        [0, 0, 0, 0, 1, 0],
        [0, 0, 1, 0, 0, 0],

        [13, 0, 0, 0, 0, 0],
        [12, 0, 1, 0, 0, 0],
        [0, 0, 0, 1, 0, 0],
        [0, 0, 0, 0, 4, 0],
        [0, 0, 0, 1, 0, 0],
        [0, 0, 1, 0, 0, 0],

        [13, 0, 0, 0, 0, 0],
        [12, 0, 1, 0, 0, 0],
        [0, 0, 0, 1, 0, 0],
        [0, 0, 0, 0, 4, 0],
        [0, 0, 0, 1, 0, 0],
        [0, 0, 1, 0, 0, 0],

        [13, 0, 0, 0, 0, 0],
        [12, 0, 1, 0, 0, 0],
        [0, 0, 0, 14, 0, 0],
        [0, 0, 0, 0, 0, 4],
        [0, 0, 0, 1, 0, 0],
        [0, 0, 2, 0, 0, 0],

        [20, 20, 20, 20, 20]
    ],
    "Timeouts": [
        [
            8,
            0.5,
            0.5,
            0.5,
            0.5,
            0.5,
            0.5,
            0.5,

            1,
            0.5,
            0.5,
            0.5,
            0.5,
            0.5,
            0.5,
            0.5,

            1,
            0.5,
            0.5,
            0.5,
            0.5,
            0.5,
            0.5,
            0.5,

            1,
            0.5,
            0.5,
            0.5,
            0.5,
            0.5,
            0.5,
            0.5,
            1,
            0.5,
            0.5,
            0.5,
            2,
            2,

            3,
            0.5,
            0.5,
            0.5,
            0.5,
            0.5,
            0.5,
            0.5,

            1,
            0.5,
            0.5,
            0.5,
            0.5,
            0.5,
            0.5,
            0.5,
            1,
            3.5,

            3,
            0.5,
            0.5,
            0.5,
            0.5,
            0.5,
            0.5,
            0.5,

            1,
            0.5,
            0.5,
            0.5,
            0.5,
            0.5,
            0.5,
            0.5,

            2,
            0.5,
            0.5,
            0.5,
            0.5,
            0.5,
            0.5,
            0.5,

            1,
            0.5,
            0.5,
            0.5,
            0.5,
            0.5,
            0.5,
            0.5,
            5,
            1,
            0.8,
            0.8,
            0.8,
            0.8,

            5,
            1.1,
            1,
            0.8,
            0.8,
            0.8,

            5,
            1.2,
            1,
            0.8,
            0.8,
            0.8,

            5,
            1.2,
            1,
            0.8,
            0.8,
            0.8,


            8
        ]
    ],
    "MinimumScore": 1050
}