{"frames": {

    "continueBtn.png": {
        "frame": {
            "x": 926,
            "y": 2,
            "w": 316,
            "h": 81
        },
        "rotated": false,
        "trimmed": false,
        "spriteSourceSize": {
            "x": 0,
            "y": 0,
            "w": 316,
            "h": 81
        },
        "sourceSize": {
            "w": 316,
            "h": 81
        },
        "pivot": {
            "x": 0.5,
            "y": 0.5
        }
    },
    "leftRunBtn.png": {
        "frame": {
            "x": 2,
            "y": 85,
            "w": 90,
            "h": 90
        },
        "rotated": false,
        "trimmed": false,
        "spriteSourceSize": {
            "x": 0,
            "y": 0,
            "w": 90,
            "h": 90
        },
        "sourceSize": {
            "w": 90,
            "h": 90
        },
        "pivot": {
            "x": 0.5,
            "y": 0.5
        }
    },
    "pause_menu.png": {
        "frame": {
            "x": 2,
            "y": 727,
            "w": 960,
            "h": 640
        },
        "rotated": false,
        "trimmed": false,
        "spriteSourceSize": {
            "x": 0,
            "y": 0,
            "w": 960,
            "h": 640
        },
        "sourceSize": {
            "w": 960,
            "h": 640
        },
        "pivot": {
            "x": 0.5,
            "y": 0.5
        }
    },
    "pauseEffect.png": {
        "frame": {
            "x": 2,
            "y": 1369,
            "w": 960,
            "h": 640
        },
        "rotated": false,
        "trimmed": false,
        "spriteSourceSize": {
            "x": 0,
            "y": 0,
            "w": 960,
            "h": 640
        },
        "sourceSize": {
            "w": 960,
            "h": 640
        },
        "pivot": {
            "x": 0.5,
            "y": 0.5
        }
    },
    "quitBtn.png": {
        "frame": {
            "x": 2,
            "y": 2,
            "w": 200,
            "h": 51
        },
        "rotated": false,
        "trimmed": false,
        "spriteSourceSize": {
            "x": 0,
            "y": 0,
            "w": 200,
            "h": 51
        },
        "sourceSize": {
            "w": 200,
            "h": 51
        },
        "pivot": {
            "x": 0.5,
            "y": 0.5
        }
    },
    "restartBtn.png": {
        "frame": {
            "x": 406,
            "y": 2,
            "w": 200,
            "h": 51
        },
        "rotated": false,
        "trimmed": false,
        "spriteSourceSize": {
            "x": 0,
            "y": 0,
            "w": 200,
            "h": 51
        },
        "sourceSize": {
            "w": 200,
            "h": 51
        },
        "pivot": {
            "x": 0.5,
            "y": 0.5
        }
    },
    "retryBtn.png": {
        "frame": {
            "x": 204,
            "y": 2,
            "w": 200,
            "h": 51
        },
        "rotated": false,
        "trimmed": false,
        "spriteSourceSize": {
            "x": 0,
            "y": 0,
            "w": 200,
            "h": 51
        },
        "sourceSize": {
            "w": 200,
            "h": 51
        },
        "pivot": {
            "x": 0.5,
            "y": 0.5
        }
    },
    "rightRunBtn.png": {
        "frame": {
            "x": 186,
            "y": 85,
            "w": 90,
            "h": 90
        },
        "rotated": false,
        "trimmed": false,
        "spriteSourceSize": {
            "x": 0,
            "y": 0,
            "w": 90,
            "h": 90
        },
        "sourceSize": {
            "w": 90,
            "h": 90
        },
        "pivot": {
            "x": 0.5,
            "y": 0.5
        }
    },
    "selectLevel.png": {
        "frame": {
            "x": 608,
            "y": 2,
            "w": 316,
            "h": 81
        },
        "rotated": false,
        "trimmed": false,
        "spriteSourceSize": {
            "x": 0,
            "y": 0,
            "w": 316,
            "h": 81
        },
        "sourceSize": {
            "w": 316,
            "h": 81
        },
        "pivot": {
            "x": 0.5,
            "y": 0.5
        }
    },
    "topLeftBtn.png": {
        "frame": {
            "x": 94,
            "y": 85,
            "w": 90,
            "h": 90
        },
        "rotated": false,
        "trimmed": false,
        "spriteSourceSize": {
            "x": 0,
            "y": 0,
            "w": 90,
            "h": 90
        },
        "sourceSize": {
            "w": 90,
            "h": 90
        },
        "pivot": {
            "x": 0.5,
            "y": 0.5
        }
    },
    "leftFoot.png": {
        "frame": {
            "x": 1,
            "y": 180,
            "w": 143,
            "h": 143
        },
        "rotated": false,
        "trimmed": false,
        "spriteSourceSize": {
            "x": 0,
            "y": 0,
            "w": 90,
            "h": 90
        },
        "sourceSize": {
            "w": 90,
            "h": 90
        },
        "pivot": {
            "x": 0.5,
            "y": 0.5
        }
    },
    "rightFoot.png": {
        "frame": {
            "x": 144,
            "y": 180,
            "w": 143,
            "h": 143
        },
        "rotated": false,
        "trimmed": false,
        "spriteSourceSize": {
            "x": 0,
            "y": 0,
            "w": 143,
            "h": 143
        },
        "sourceSize": {
            "w": 143,
            "h": 143
        },
        "pivot": {
            "x": 0.5,
            "y": 0.5
        }
    },
    "victory_menu.png": {
        "frame": {
            "x": 278,
            "y": 85,
            "w": 960,
            "h": 640
        },
        "rotated": false,
        "trimmed": false,
        "spriteSourceSize": {
            "x": 0,
            "y": 0,
            "w": 960,
            "h": 640
        },
        "sourceSize": {
            "w": 960,
            "h": 640
        },
        "pivot": {
            "x": 0.5,
            "y": 0.5
        }
    },
    "leftRun.png": {
        "frame": {
            "x": 1070,
            "y": 910,
            "w": 171,
            "h": 172
        },
        "rotated": false,
        "trimmed": false,
        "spriteSourceSize": {
            "x": 0,
            "y": 0,
            "w": 171,
            "h": 172
        },
        "sourceSize": {
            "w": 171,
            "h": 172
        },
        "pivot": {
            "x": 0.5,
            "y": 0.5
        }
    },
    "rightRun.png": {
        "frame": {
            "x": 1070,
            "y": 1082,
            "w": 171,
            "h": 172
        },
        "rotated": false,
        "trimmed": false,
        "spriteSourceSize": {
            "x": 0,
            "y": 0,
            "w": 171,
            "h": 172
        },
        "sourceSize": {
            "w": 171,
            "h": 172
        },
        "pivot": {
            "x": 0.5,
            "y": 0.5
        }
    },
    "gameOver.png": {
        "frame": {
            "x": 0,
            "y": 2014,
            "w": 666,
            "h": 301
        },
        "rotated": false,
        "trimmed": false,
        "spriteSourceSize": {
            "x": 0,
            "y": 0,
            "w": 666,
            "h": 301
        },
        "sourceSize": {
            "w": 666,
            "h": 301
        },
        "pivot": {
            "x": 0.5,
            "y": 0.5
        }
    },

    "introDecoration.png": {
        "frame": {
            "x": 0,
            "y": 2326,
            "w": 960,
            "h": 72
        },
        "rotated": false,
        "trimmed": false,
        "spriteSourceSize": {
            "x": 0,
            "y": 0,
            "w": 960,
            "h": 72
        },
        "sourceSize": {
            "w": 960,
            "h": 72
        },
        "pivot": {
            "x": 0.5,
            "y": 0.5
        }
    }

},


    "meta": {
        "app": "http://www.codeandweb.com/texturepacker",
        "version": "1.0",
        "image": "common.png",
        "format": "RGBA8888",
        "size": {
            "w": 1244,
            "h": 2400
        },
        "scale": "1",
        "smartupdate": "$TexturePacker:SmartUpdate:0ec7971d1f3d7ec12a53f44fb6ecf021:2f64428df3da01832308dcf7ff98f514:5f8fd6ff9a85da144f948e71be2ecc32$"
    }
}
